{
    "prepare_queue": {
        "installed": [],
        "uninstalled": []
    },
    "config_munge": {
        "files": {
            "res/xml/config.xml": {
                "parents": {
                    "/*": [
                        {
                            "xml": "<feature name=\"Keyboard\"><param name=\"android-package\" value=\"com.ionic.keyboard.IonicKeyboard\" /><param name=\"onload\" value=\"true\" /></feature>",
                            "count": 1
                        },
                        {
                            "xml": "<feature name=\"PushPlugin\"><param name=\"android-package\" value=\"com.plugin.gcm.PushPlugin\" /></feature>",
                            "count": 1
                        },
                        {
                            "xml": "<feature name=\"DatePickerPlugin\"><param name=\"android-package\" value=\"com.plugin.datepicker.DatePickerPlugin\" /></feature>",
                            "count": 1
                        },
                        {
                            "xml": "<feature name=\"Device\"><param name=\"android-package\" value=\"org.apache.cordova.device.Device\" /></feature>",
                            "count": 1
                        },
                        {
                            "xml": "<feature name=\"LocalNotification\"><param name=\"android-package\" value=\"de.appplant.cordova.plugin.localnotification.LocalNotification\" /></feature>",
                            "count": 1
                        },
                        {
                            "xml": "<feature name=\"SocialSharing\"><param name=\"android-package\" value=\"nl.xservices.plugins.SocialSharing\" /></feature>",
                            "count": 1
                        },
                        {
                            "xml": "<feature name=\"Toast\"><param name=\"android-package\" value=\"nl.xservices.plugins.Toast\" /></feature>",
                            "count": 1
                        },
                        {
                            "xml": "<feature name=\"Camera\"><param name=\"android-package\" value=\"org.apache.cordova.camera.CameraLauncher\" /></feature>",
                            "count": 1
                        },
                        {
                            "xml": "<feature name=\"Notification\"><param name=\"android-package\" value=\"org.apache.cordova.dialogs.Notification\" /></feature>",
                            "count": 1
                        },
                        {
                            "xml": "<feature name=\"File\"><param name=\"android-package\" value=\"org.apache.cordova.file.FileUtils\" /><param name=\"onload\" value=\"true\" /></feature>",
                            "count": 1
                        },
                        {
                            "xml": "<feature name=\"InAppBrowser\"><param name=\"android-package\" value=\"org.apache.cordova.inappbrowser.InAppBrowser\" /></feature>",
                            "count": 1
                        },
                        {
                            "xml": "<feature name=\"NetworkStatus\"><param name=\"android-package\" value=\"org.apache.cordova.networkinformation.NetworkManager\" /></feature>",
                            "count": 1
                        },
                        {
                            "xml": "<feature name=\"StatusBar\"><param name=\"android-package\" onload=\"true\" value=\"org.apache.cordova.statusbar.StatusBar\" /></feature>",
                            "count": 1
                        },
                        {
                            "xml": "<feature name=\"FacebookConnectPlugin\"><param name=\"android-package\" value=\"org.apache.cordova.facebook.ConnectPlugin\" /></feature>",
                            "count": 1
                        },
                        {
                            "xml": "<access origin=\"https://m.facebook.com\" />",
                            "count": 1
                        },
                        {
                            "xml": "<access origin=\"https://graph.facebook.com\" />",
                            "count": 1
                        },
                        {
                            "xml": "<access origin=\"https://api.facebook.com\" />",
                            "count": 1
                        },
                        {
                            "xml": "<access origin=\"https://*.fbcdn.net\" />",
                            "count": 1
                        },
                        {
                            "xml": "<access origin=\"https://*.akamaihd.net\" />",
                            "count": 1
                        }
                    ]
                }
            },
            "AndroidManifest.xml": {
                "parents": {
                    "/manifest": [
                        {
                            "xml": "<uses-permission android:name=\"android.permission.ACCESS_NETWORK_STATE\" />",
                            "count": 1
                        },
                        {
                            "xml": "<uses-permission android:name=\"android.permission.GET_ACCOUNTS\" />",
                            "count": 1
                        },
                        {
                            "xml": "<uses-permission android:name=\"android.permission.WAKE_LOCK\" />",
                            "count": 1
                        },
                        {
                            "xml": "<uses-permission android:name=\"android.permission.VIBRATE\" />",
                            "count": 1
                        },
                        {
                            "xml": "<uses-permission android:name=\"com.google.android.c2dm.permission.RECEIVE\" />",
                            "count": 1
                        },
                        {
                            "xml": "<permission android:name=\"com.theboosterapp.booster.android.permission.C2D_MESSAGE\" android:protectionLevel=\"signature\" />",
                            "count": 1
                        },
                        {
                            "xml": "<uses-permission android:name=\"com.theboosterapp.booster.android.permission.C2D_MESSAGE\" />",
                            "count": 1
                        },
                        {
                            "xml": "<uses-permission android:name=\"android.permission.RECEIVE_BOOT_COMPLETED\" />",
                            "count": 1
                        },
                        {
                            "xml": "<uses-permission android:name=\"android.permission.WRITE_EXTERNAL_STORAGE\" />",
                            "count": 1
                        }
                    ],
                    "/manifest/application": [
                        {
                            "xml": "<activity android:exported=\"true\" android:name=\"com.plugin.gcm.PushHandlerActivity\" />",
                            "count": 1
                        },
                        {
                            "xml": "<receiver android:name=\"com.plugin.gcm.CordovaGCMBroadcastReceiver\" android:permission=\"com.google.android.c2dm.permission.SEND\"><intent-filter><action android:name=\"com.google.android.c2dm.intent.RECEIVE\" /><action android:name=\"com.google.android.c2dm.intent.REGISTRATION\" /><category android:name=\"com.theboosterapp.booster.android\" /></intent-filter></receiver>",
                            "count": 1
                        },
                        {
                            "xml": "<service android:name=\"com.plugin.gcm.GCMIntentService\" />",
                            "count": 1
                        },
                        {
                            "xml": "<receiver android:name=\"de.appplant.cordova.plugin.localnotification.Receiver\" />",
                            "count": 1
                        },
                        {
                            "xml": "<receiver android:name=\"de.appplant.cordova.plugin.localnotification.Restore\"><intent-filter><action android:name=\"android.intent.action.BOOT_COMPLETED\" /></intent-filter></receiver>",
                            "count": 1
                        },
                        {
                            "xml": "<activity android:launchMode=\"singleInstance\" android:name=\"de.appplant.cordova.plugin.localnotification.ReceiverActivity\" />",
                            "count": 1
                        }
                    ],
                    "/*": [
                        {
                            "xml": "<uses-permission android:name=\"android.permission.WRITE_EXTERNAL_STORAGE\" />",
                            "count": 2
                        },
                        {
                            "xml": "<uses-permission android:name=\"android.permission.ACCESS_NETWORK_STATE\" />",
                            "count": 1
                        }
                    ],
                    "application": [
                        {
                            "xml": "<meta-data android:name=\"com.facebook.sdk.ApplicationId\" android:value=\"@string/fb_app_id\" />",
                            "count": 1
                        },
                        {
                            "xml": "<activity android:label=\"@string/fb_app_name\" android:name=\"com.facebook.LoginActivity\" />",
                            "count": 1
                        }
                    ]
                }
            },
            "res/values/facebookconnect.xml": {
                "parents": {
                    "/*": [
                        {
                            "xml": "<string name=\"fb_app_id\">625654127541709</string>",
                            "count": 1
                        },
                        {
                            "xml": "<string name=\"fb_app_name\">BoosterApp</string>",
                            "count": 1
                        }
                    ]
                }
            }
        }
    },
    "installed_plugins": {
        "com.ionic.keyboard": {
            "PACKAGE_NAME": "com.theboosterapp.booster.android"
        },
        "com.phonegap.plugins.PushPlugin": {
            "PACKAGE_NAME": "com.theboosterapp.booster.android"
        },
        "com.plugin.datepicker": {
            "PACKAGE_NAME": "com.theboosterapp.booster.android"
        },
        "de.appplant.cordova.plugin.local-notification": {
            "PACKAGE_NAME": "com.theboosterapp.booster.android"
        },
        "nl.x-services.plugins.socialsharing": {
            "PACKAGE_NAME": "com.theboosterapp.booster.android"
        },
        "nl.x-services.plugins.toast": {
            "PACKAGE_NAME": "com.theboosterapp.booster.android"
        },
        "org.apache.cordova.camera": {
            "PACKAGE_NAME": "com.theboosterapp.booster.android"
        },
        "org.apache.cordova.console": {
            "PACKAGE_NAME": "com.theboosterapp.booster.android"
        },
        "org.apache.cordova.dialogs": {
            "PACKAGE_NAME": "com.theboosterapp.booster.android"
        },
        "org.apache.cordova.file": {
            "PACKAGE_NAME": "com.theboosterapp.booster.android"
        },
        "org.apache.cordova.inappbrowser": {
            "PACKAGE_NAME": "com.theboosterapp.booster.android"
        },
        "org.apache.cordova.network-information": {
            "PACKAGE_NAME": "com.theboosterapp.booster.android"
        },
        "org.apache.cordova.statusbar": {
            "PACKAGE_NAME": "com.theboosterapp.booster.android"
        },
        "com.phonegap.plugins.facebookconnect": {
            "APP_ID": "625654127541709",
            "APP_NAME": "BoosterApp",
            "PACKAGE_NAME": "com.theboosterapp.booster.android"
        }
    },
    "dependent_plugins": {
        "org.apache.cordova.device": {
            "PACKAGE_NAME": "com.theboosterapp.booster.android"
        }
    }
}